singlecycle.vcd
$date
	Fri Dec  3 16:31:46 2021
$end
$version
	Icarus Verilog
$end
$timescale
	1ps
$end
$scope module SingleCycleProcTest_v $end
$var wire 64 ! dMemOut [63:0] $end
$var wire 64 " currentPC [63:0] $end
$var reg 1 # CLK $end
$var reg 1 $ Reset_L $end
$var reg 8 % passed [7:0] $end
$var reg 64 & startPC [63:0] $end
$var reg 16 ' watchdog [15:0] $end
$scope module uut $end
$var wire 1 # CLK $end
$var wire 1 $ resetl $end
$var wire 64 ( startpc [63:0] $end
$var wire 1 ) zero $end
$var wire 64 * writedata [63:0] $end
$var wire 1 + uncond_branch $end
$var wire 3 , signop [2:0] $end
$var wire 26 - signext [25:0] $end
$var wire 5 . rn [4:0] $end
$var wire 5 / rm [4:0] $end
$var wire 1 0 regwrite $end
$var wire 64 1 regoutB [63:0] $end
$var wire 64 2 regoutA [63:0] $end
$var wire 1 3 reg2loc $end
$var wire 5 4 rd [4:0] $end
$var wire 11 5 opcode [10:0] $end
$var wire 64 6 nextpc [63:0] $end
$var wire 1 7 move $end
$var wire 1 8 memwrite $end
$var wire 1 9 memread $end
$var wire 1 : mem2reg $end
$var wire 32 ; instruction [31:0] $end
$var wire 64 < finalwrite [63:0] $end
$var wire 64 = extimm [63:0] $end
$var wire 64 > dmemout [63:0] $end
$var wire 1 ? branch $end
$var wire 64 @ b_input [63:0] $end
$var wire 1 A alusrc $end
$var wire 64 B aluout [63:0] $end
$var wire 4 C aluctrl [3:0] $end
$var reg 64 D currentpc [63:0] $end
$scope module ALU $end
$var wire 64 E BusB [63:0] $end
$var wire 1 ) Zero $end
$var wire 64 F BusA [63:0] $end
$var wire 4 G ALUCtrl [3:0] $end
$var reg 64 H BusW [63:0] $end
$upscope $end
$scope module DataMemory $end
$var wire 64 I Address [63:0] $end
$var wire 1 # Clock $end
$var wire 64 J WriteData [63:0] $end
$var wire 1 8 MemoryWrite $end
$var wire 1 9 MemoryRead $end
$var reg 64 K ReadData [63:0] $end
$scope task initset $end
$var reg 64 L addr [63:0] $end
$var reg 64 M data [63:0] $end
$upscope $end
$upscope $end
$scope module NextPClogic $end
$var wire 1 ) ALUZero $end
$var wire 64 N CurrentPC [63:0] $end
$var wire 1 O Selector $end
$var wire 1 + Uncondbranch $end
$var wire 64 P SignExtImm64 [63:0] $end
$var wire 64 Q Mux1 [63:0] $end
$var wire 64 R Mux0 [63:0] $end
$var wire 1 ? Branch $end
$var reg 64 S NextPC [63:0] $end
$upscope $end
$scope module RegisterFile $end
$var wire 64 T BusA [63:0] $end
$var wire 64 U BusB [63:0] $end
$var wire 64 V BusW [63:0] $end
$var wire 1 # Clk $end
$var wire 5 W RA [4:0] $end
$var wire 5 X RB [4:0] $end
$var wire 5 Y RW [4:0] $end
$var wire 1 0 RegWr $end
$upscope $end
$scope module SignExtender $end
$var wire 26 Z Imm26 [25:0] $end
$var wire 3 [ Ctrl [2:0] $end
$var reg 64 \ BusImm [63:0] $end
$upscope $end
$scope module control $end
$var wire 11 ] opcode [10:0] $end
$var reg 4 ^ aluop [3:0] $end
$var reg 1 A alusrc $end
$var reg 1 ? branch $end
$var reg 1 : mem2reg $end
$var reg 1 9 memread $end
$var reg 1 8 memwrite $end
$var reg 1 7 move $end
$var reg 1 3 reg2loc $end
$var reg 1 0 regwrite $end
$var reg 3 _ signop [2:0] $end
$var reg 1 + uncond_branch $end
$upscope $end
$scope module imem $end
$var wire 64 ` Address [63:0] $end
$var reg 32 a Data [31:0] $end
$upscope $end
$upscope $end
$scope task allPassed $end
$var reg 8 b numTests [7:0] $end
$var reg 8 c passed [7:0] $end
$upscope $end
$scope task passTest $end
$var reg 64 d actualOut [63:0] $end
$var reg 64 e expectedOut [63:0] $end
$var reg 8 f passed [7:0] $end
$var reg 257 g testType [256:0] $end
$upscope $end
$upscope $end
$enddefinitions $end
#0
$dumpvars
bx g
bx f
bx e
bx d
bx c
bx b
bx a
bx `
bx _
bx ^
bx ]
bx \
bx [
bx Z
bx Y
bx X
bx W
bx V
bx U
bx T
bx S
bx R
bx Q
bx P
xO
bx N
b0 M
b100000 L
bx K
bx J
bx I
bx H
bx G
bx F
bx E
bx D
bx C
bx B
xA
bx @
x?
bx >
bx =
bx <
bx ;
x:
x9
x8
x7
bx 6
bx 5
bx 4
x3
bx 2
bx 1
x0
bx /
bx .
bx -
bx ,
x+
bx *
x)
b0 (
b0 '
b0 &
b0 %
1$
0#
bx "
bx !
$end
#60000
1#
#120000
b1 '
0#
#121000
0$
#180000
1#
#240000
b0 "
b0 D
b0 N
b0 `
b10 '
0#
#241000
1$
#242000
b100 R
#243000
b100 6
b100 S
#244000
b0 @
b0 E
b0 =
b0 P
b0 \
0O
b10 ,
b10 [
b10 _
07
b10 C
b10 G
b10 ^
10
1A
08
1:
19
0?
0+
b0x00x .
b0x00x X
b10000000000001111101001 -
b10000000000001111101001 Z
b11111000010 5
b11111000010 ]
b11111 /
b11111 W
b1001 4
b1001 Y
b11111000010000000000001111101001 ;
b11111000010000000000001111101001 a
#246000
b0 Q
b0 2
b0 F
b0 T
#266000
b0 B
b0 H
b0 I
#267000
1)
#300000
1#
#320000
b1 <
b1 V
b1 *
b1 !
b1 >
b1 K
#360000
b100 "
b100 D
b100 N
b100 `
b11 '
0#
#362000
b1000 R
b100 Q
#363000
b1000 6
b1000 S
#364000
b1000 @
b1000 E
b1000 =
b1000 P
b1000 \
b0x0x0 .
b0x0x0 X
b10000001000001111101010 -
b10000001000001111101010 Z
b1010 4
b1010 Y
b11111000010000001000001111101010 ;
b11111000010000001000001111101010 a
#366000
b100100 Q
#384000
b1000 B
b1000 H
b1000 I
#385000
0)
#420000
1#
#440000
b1010 <
b1010 V
b1010 *
b1010 !
b1010 >
b1010 K
#480000
b1000 "
b1000 D
b1000 N
b1000 `
b100 '
0#
#482000
b1100 R
b101000 Q
#483000
b1100 6
b1100 S
#484000
b10000 @
b10000 E
b10000 =
b10000 P
b10000 \
b0x0x1 .
b0x0x1 X
b10000010000001111101011 -
b10000010000001111101011 Z
b1011 4
b1011 Y
b11111000010000010000001111101011 ;
b11111000010000010000001111101011 a
#486000
b1001000 Q
#504000
b10000 B
b10000 H
b10000 I
#540000
1#
#560000
b101 <
b101 V
b101 *
b101 !
b101 >
b101 K
#600000
b1100 "
b1100 D
b1100 N
b1100 `
b101 '
0#
#602000
b10000 R
b1001100 Q
#603000
b10000 6
b10000 S
#604000
b11000 @
b11000 E
b11000 =
b11000 P
b11000 \
b0xx0x .
b0xx0x X
b10000011000001111101100 -
b10000011000001111101100 Z
b1100 4
b1100 Y
b11111000010000011000001111101100 ;
b11111000010000011000001111101100 a
#606000
b1101100 Q
#624000
b11000 B
b11000 H
b11000 I
#660000
1#
#680000
b111111111011111010100111110111101010110110111110111011111111 <
b111111111011111010100111110111101010110110111110111011111111 V
b111111111011111010100111110111101010110110111110111011111111 *
b111111111011111010100111110111101010110110111110111011111111 !
b111111111011111010100111110111101010110110111110111011111111 >
b111111111011111010100111110111101010110110111110111011111111 K
#720000
b10000 "
b10000 D
b10000 N
b10000 `
b110 '
0#
#722000
b10100 R
b1110000 Q
#723000
b10100 6
b10100 S
#724000
b100000 @
b100000 E
b100000 =
b100000 P
b100000 \
b0xxxx .
b0xxxx X
b10000100000001111101101 -
b10000100000001111101101 Z
b1101 4
b1101 Y
b11111000010000100000001111101101 ;
b11111000010000100000001111101101 a
#726000
b10010000 Q
#744000
b100000 B
b100000 H
b100000 I
#780000
1#
#800000
b0 <
b0 V
b0 *
b0 !
b0 >
b0 K
#840000
b10100 "
b10100 D
b10100 N
b10100 `
b111 '
0#
#842000
b11000 R
b10010100 Q
#843000
b11000 6
b11000 S
#844000
b100000 <
b100000 V
bx @
bx E
b100000 *
b10110000 =
b10110000 P
b10110000 \
bx ,
bx [
bx _
b1 C
b1 G
b1 ^
0A
0:
09
03
b1011 .
b1011 X
b10000010110000000101001010 -
b10000010110000000101001010 Z
b10101010000 5
b10101010000 ]
b1010 /
b1010 W
b1010 4
b1010 Y
b10101010000010110000000101001010 ;
b10101010000010110000000101001010 a
#846000
b101 @
b101 E
b1011010100 Q
b101 1
b101 J
b101 U
b1010 2
b1010 F
b1010 T
#864000
bx <
bx V
bx *
bx B
bx H
bx I
#865000
x)
#866000
b1111 <
b1111 V
b1111 *
b1111 B
b1111 H
b1111 I
#867000
0)
#900000
1#
#960000
b11000 "
b11000 D
b11000 N
b11000 `
b1000 '
0#
#962000
b11100 R
b1011011000 Q
#963000
b11100 6
b11100 S
#964000
b0 C
b0 G
b0 ^
b1010 .
b1010 X
b10000010100000000110001100 -
b10000010100000000110001100 Z
b10001010000 5
b10001010000 ]
b1100 /
b1100 W
b1100 4
b1100 Y
b10001010000010100000000110001100 ;
b10001010000010100000000110001100 a
#966000
b1111 @
b1111 E
b1111 1
b1111 J
b1111 U
b111111111011111010100111110111101010110110111110111011111111 2
b111111111011111010100111110111101010110110111110111011111111 F
b111111111011111010100111110111101010110110111110111011111111 T
#984000
b0 <
b0 V
b0 *
b0 B
b0 H
b0 I
#985000
1)
#986000
b1111 <
b1111 V
b1111 *
b1111 B
b1111 H
b1111 I
#987000
0)
#1020000
1#
#1080000
b11100 "
b11100 D
b11100 N
b11100 `
b1001 '
0#
#1082000
b100000 R
b1011011100 Q
#1083000
b100000 6
b100000 S
#1084000
b100 =
b100 P
b100 \
b0xxxx <
b0xxxx V
b0xxxx *
b11 ,
b11 [
b11 _
b111 C
b111 G
b111 ^
00
x:
1?
13
b1100 .
b1100 X
b10001100 -
b10001100 Z
b10110100000 5
b10110100000 ]
b100 /
b100 W
b10110100000000000000000010001100 ;
b10110100000000000000000010001100 a
#1086000
b101100 Q
bx 2
bx F
bx T
#1140000
1#
#1200000
b100000 "
b100000 D
b100000 N
b100000 `
b1010 '
0#
#1202000
b100100 R
b110000 Q
#1203000
b100100 6
b100100 S
#1204000
b1111 <
b1111 V
b1111 *
b100100000001101 =
b100100000001101 P
b100100000001101 \
bx ,
bx [
bx _
b10 C
b10 G
b10 ^
10
0:
0?
03
b1001 .
b1001 X
b11000010010000000110101101 -
b11000010010000000110101101 Z
b10001011000 5
b10001011000 ]
b1101 /
b1101 W
b1101 4
b1101 Y
b10001011000010010000000110101101 ;
b10001011000010010000000110101101 a
#1206000
b1 @
b1 E
b10010000001010100 Q
b1 1
b1 J
b1 U
b0 2
b0 F
b0 T
#1224000
bx <
bx V
bx *
bx B
bx H
bx I
#1225000
x)
#1226000
b1 <
b1 V
b1 *
b1 B
b1 H
b1 I
#1227000
0)
#1260000
1#
#1320000
b100100 "
b100100 D
b100100 N
b100100 `
b1011 '
0#
#1322000
b101000 R
b10010000001011000 Q
#1323000
b101000 6
b101000 S
#1324000
b110 C
b110 G
b110 ^
b11000010010000000110001100 -
b11000010010000000110001100 Z
b11001011000 5
b11001011000 ]
b1100 /
b1100 W
b1100 4
b1100 Y
b11001011000010010000000110001100 ;
b11001011000010010000000110001100 a
#1326000
b1111 2
b1111 F
b1111 T
#1344000
b1111111111111111111111111111111111111111111111111111111111111111 <
b1111111111111111111111111111111111111111111111111111111111111111 V
b1111111111111111111111111111111111111111111111111111111111111111 *
b1111111111111111111111111111111111111111111111111111111111111111 B
b1111111111111111111111111111111111111111111111111111111111111111 H
b1111111111111111111111111111111111111111111111111111111111111111 I
#1346000
b1110 <
b1110 V
b1110 *
b1110 B
b1110 H
b1110 I
#1380000
1#
#1440000
b101000 "
b101000 D
b101000 N
b101000 `
b1100 '
0#
#1442000
b101100 R
b10010000001011100 Q
#1443000
b101100 6
b101100 S
#1444000
b1111111111111111111111111111111111111111111111111111111111111101 =
b1111111111111111111111111111111111111111111111111111111111111101 P
b1111111111111111111111111111111111111111111111111111111111111101 \
b0xxx0 <
b0xxx0 V
bx01 @
bx01 E
b0xxx0 *
1O
b1 ,
b1 [
b1 _
bx C
bx G
bx ^
00
xA
x:
x?
1+
x3
b111x1 .
b111x1 X
b11111111111111111111111101 -
b11111111111111111111111101 Z
b10111111 5
b10111111 ]
b11111 /
b11111 W
b11101 4
b11101 Y
b10111111111111111111111111101 ;
b10111111111111111111111111101 a
#1445000
b10010000001011100 6
b10010000001011100 S
#1446000
bx @
bx E
b11100 Q
bx 1
bx J
bx U
b0 2
b0 F
b0 T
#1447000
b11100 6
b11100 S
#1500000
1#
#1560000
b11100 "
b11100 D
b11100 N
b11100 `
b1101 '
0#
#1562000
b100000 R
b10000 Q
#1563000
b10000 6
b10000 S
#1564000
0O
b100 =
b100 P
b100 \
b11 ,
b11 [
b11 _
b111 C
b111 G
b111 ^
0A
1?
0+
13
b1100 .
b1100 X
b10001100 -
b10001100 Z
b10110100000 5
b10110100000 ]
b100 /
b100 W
b1100 4
b1100 Y
b10110100000000000000000010001100 ;
b10110100000000000000000010001100 a
#1565000
b100000 6
b100000 S
#1566000
b1110 @
b1110 E
b101100 Q
b1110 1
b1110 J
b1110 U
bx 2
bx F
bx T
#1584000
bx <
bx V
bx *
bx B
bx H
bx I
#1585000
xO
x)
#1586000
b0xxx0 <
b0xxx0 V
b0xxx0 *
b1110 B
b1110 H
b1110 I
#1587000
0O
0)
#1620000
1#
#1680000
b100000 "
b100000 D
b100000 N
b100000 `
b1110 '
0#
#1682000
b100100 R
b110000 Q
#1683000
b100100 6
b100100 S
#1684000
b1110 <
b1110 V
b1110 *
b100100000001101 =
b100100000001101 P
b100100000001101 \
bx ,
bx [
bx _
b10 C
b10 G
b10 ^
10
0:
0?
03
b1001 .
b1001 X
b11000010010000000110101101 -
b11000010010000000110101101 Z
b10001011000 5
b10001011000 ]
b1101 /
b1101 W
b1101 4
b1101 Y
b10001011000010010000000110101101 ;
b10001011000010010000000110101101 a
#1686000
b1 @
b1 E
b10010000001010100 Q
b1 1
b1 J
b1 U
b1 2
b1 F
b1 T
#1704000
bx <
bx V
bx *
bx B
bx H
bx I
#1705000
x)
#1706000
b10 <
b10 V
b10 *
b10 B
b10 H
b10 I
#1707000
0)
#1740000
1#
#1800000
b100100 "
b100100 D
b100100 N
b100100 `
b1111 '
0#
#1802000
b101000 R
b10010000001011000 Q
#1803000
b101000 6
b101000 S
#1804000
b110 C
b110 G
b110 ^
b11000010010000000110001100 -
b11000010010000000110001100 Z
b11001011000 5
b11001011000 ]
b1100 /
b1100 W
b1100 4
b1100 Y
b11001011000010010000000110001100 ;
b11001011000010010000000110001100 a
#1806000
b1110 2
b1110 F
b1110 T
#1824000
b0 <
b0 V
b0 *
b0 B
b0 H
b0 I
#1825000
1)
#1826000
b1101 <
b1101 V
b1101 *
b1101 B
b1101 H
b1101 I
#1827000
0)
#1860000
1#
#1920000
b101000 "
b101000 D
b101000 N
b101000 `
b10000 '
0#
#1922000
b101100 R
b10010000001011100 Q
#1923000
b101100 6
b101100 S
#1924000
b1111111111111111111111111111111111111111111111111111111111111101 =
b1111111111111111111111111111111111111111111111111111111111111101 P
b1111111111111111111111111111111111111111111111111111111111111101 \
b0xx0x <
b0xx0x V
bx01 @
bx01 E
b0xx0x *
1O
b1 ,
b1 [
b1 _
bx C
bx G
bx ^
00
xA
x:
x?
1+
x3
b111x1 .
b111x1 X
b11111111111111111111111101 -
b11111111111111111111111101 Z
b10111111 5
b10111111 ]
b11111 /
b11111 W
b11101 4
b11101 Y
b10111111111111111111111111101 ;
b10111111111111111111111111101 a
#1925000
b10010000001011100 6
b10010000001011100 S
#1926000
bx @
bx E
b11100 Q
bx 1
bx J
bx U
b0 2
b0 F
b0 T
#1927000
b11100 6
b11100 S
#1980000
1#
#2040000
b11100 "
b11100 D
b11100 N
b11100 `
b10001 '
0#
#2042000
b100000 R
b10000 Q
#2043000
b10000 6
b10000 S
#2044000
0O
b100 =
b100 P
b100 \
b11 ,
b11 [
b11 _
b111 C
b111 G
b111 ^
0A
1?
0+
13
b1100 .
b1100 X
b10001100 -
b10001100 Z
b10110100000 5
b10110100000 ]
b100 /
b100 W
b1100 4
b1100 Y
b10110100000000000000000010001100 ;
b10110100000000000000000010001100 a
#2045000
b100000 6
b100000 S
#2046000
b1101 @
b1101 E
b101100 Q
b1101 1
b1101 J
b1101 U
bx 2
bx F
bx T
#2064000
bx <
bx V
bx *
bx B
bx H
bx I
#2065000
xO
x)
#2066000
b0xx0x <
b0xx0x V
b0xx0x *
b1101 B
b1101 H
b1101 I
#2067000
0O
0)
#2100000
1#
#2160000
b100000 "
b100000 D
b100000 N
b100000 `
b10010 '
0#
#2162000
b100100 R
b110000 Q
#2163000
b100100 6
b100100 S
#2164000
b1101 <
b1101 V
b1101 *
b100100000001101 =
b100100000001101 P
b100100000001101 \
bx ,
bx [
bx _
b10 C
b10 G
b10 ^
10
0:
0?
03
b1001 .
b1001 X
b11000010010000000110101101 -
b11000010010000000110101101 Z
b10001011000 5
b10001011000 ]
b1101 /
b1101 W
b1101 4
b1101 Y
b10001011000010010000000110101101 ;
b10001011000010010000000110101101 a
#2166000
b1 @
b1 E
b10010000001010100 Q
b1 1
b1 J
b1 U
b10 2
b10 F
b10 T
#2184000
bx <
bx V
bx *
bx B
bx H
bx I
#2185000
x)
#2186000
b11 <
b11 V
b11 *
b11 B
b11 H
b11 I
#2187000
0)
#2220000
1#
#2280000
b100100 "
b100100 D
b100100 N
b100100 `
b10011 '
0#
#2282000
b101000 R
b10010000001011000 Q
#2283000
b101000 6
b101000 S
#2284000
b110 C
b110 G
b110 ^
b11000010010000000110001100 -
b11000010010000000110001100 Z
b11001011000 5
b11001011000 ]
b1100 /
b1100 W
b1100 4
b1100 Y
b11001011000010010000000110001100 ;
b11001011000010010000000110001100 a
#2286000
b1101 2
b1101 F
b1101 T
#2304000
b1 <
b1 V
b1 *
b1 B
b1 H
b1 I
#2306000
b1100 <
b1100 V
b1100 *
b1100 B
b1100 H
b1100 I
#2340000
1#
#2400000
b101000 "
b101000 D
b101000 N
b101000 `
b10100 '
0#
#2402000
b101100 R
b10010000001011100 Q
#2403000
b101100 6
b101100 S
#2404000
b1111111111111111111111111111111111111111111111111111111111111101 =
b1111111111111111111111111111111111111111111111111111111111111101 P
b1111111111111111111111111111111111111111111111111111111111111101 \
b0xx00 <
b0xx00 V
bx01 @
bx01 E
b0xx00 *
1O
b1 ,
b1 [
b1 _
bx C
bx G
bx ^
00
xA
x:
x?
1+
x3
b111x1 .
b111x1 X
b11111111111111111111111101 -
b11111111111111111111111101 Z
b10111111 5
b10111111 ]
b11111 /
b11111 W
b11101 4
b11101 Y
b10111111111111111111111111101 ;
b10111111111111111111111111101 a
#2405000
b10010000001011100 6
b10010000001011100 S
#2406000
bx @
bx E
b11100 Q
bx 1
bx J
bx U
b0 2
b0 F
b0 T
#2407000
b11100 6
b11100 S
#2460000
1#
#2520000
b11100 "
b11100 D
b11100 N
b11100 `
b10101 '
0#
#2522000
b100000 R
b10000 Q
#2523000
b10000 6
b10000 S
#2524000
0O
b100 =
b100 P
b100 \
b11 ,
b11 [
b11 _
b111 C
b111 G
b111 ^
0A
1?
0+
13
b1100 .
b1100 X
b10001100 -
b10001100 Z
b10110100000 5
b10110100000 ]
b100 /
b100 W
b1100 4
b1100 Y
b10110100000000000000000010001100 ;
b10110100000000000000000010001100 a
#2525000
b100000 6
b100000 S
#2526000
b1100 @
b1100 E
b101100 Q
b1100 1
b1100 J
b1100 U
bx 2
bx F
bx T
#2544000
bx <
bx V
bx *
bx B
bx H
bx I
#2545000
xO
x)
#2546000
b0xx00 <
b0xx00 V
b0xx00 *
b1100 B
b1100 H
b1100 I
#2547000
0O
0)
#2580000
1#
#2640000
b100000 "
b100000 D
b100000 N
b100000 `
b10110 '
0#
#2642000
b100100 R
b110000 Q
#2643000
b100100 6
b100100 S
#2644000
b1100 <
b1100 V
b1100 *
b100100000001101 =
b100100000001101 P
b100100000001101 \
bx ,
bx [
bx _
b10 C
b10 G
b10 ^
10
0:
0?
03
b1001 .
b1001 X
b11000010010000000110101101 -
b11000010010000000110101101 Z
b10001011000 5
b10001011000 ]
b1101 /
b1101 W
b1101 4
b1101 Y
b10001011000010010000000110101101 ;
b10001011000010010000000110101101 a
#2646000
b1 @
b1 E
b10010000001010100 Q
b1 1
b1 J
b1 U
b11 2
b11 F
b11 T
#2664000
bx <
bx V
bx *
bx B
bx H
bx I
#2665000
x)
#2666000
b100 <
b100 V
b100 *
b100 B
b100 H
b100 I
#2667000
0)
#2700000
1#
#2760000
b100100 "
b100100 D
b100100 N
b100100 `
b10111 '
0#
#2762000
b101000 R
b10010000001011000 Q
#2763000
b101000 6
b101000 S
#2764000
b110 C
b110 G
b110 ^
b11000010010000000110001100 -
b11000010010000000110001100 Z
b11001011000 5
b11001011000 ]
b1100 /
b1100 W
b1100 4
b1100 Y
b11001011000010010000000110001100 ;
b11001011000010010000000110001100 a
#2766000
b1100 2
b1100 F
b1100 T
#2784000
b10 <
b10 V
b10 *
b10 B
b10 H
b10 I
#2786000
b1011 <
b1011 V
b1011 *
b1011 B
b1011 H
b1011 I
#2820000
1#
#2880000
b101000 "
b101000 D
b101000 N
b101000 `
b11000 '
0#
#2882000
b101100 R
b10010000001011100 Q
#2883000
b101100 6
b101100 S
#2884000
b1111111111111111111111111111111111111111111111111111111111111101 =
b1111111111111111111111111111111111111111111111111111111111111101 P
b1111111111111111111111111111111111111111111111111111111111111101 \
b0x0xx <
b0x0xx V
bx01 @
bx01 E
b0x0xx *
1O
b1 ,
b1 [
b1 _
bx C
bx G
bx ^
00
xA
x:
x?
1+
x3
b111x1 .
b111x1 X
b11111111111111111111111101 -
b11111111111111111111111101 Z
b10111111 5
b10111111 ]
b11111 /
b11111 W
b11101 4
b11101 Y
b10111111111111111111111111101 ;
b10111111111111111111111111101 a
#2885000
b10010000001011100 6
b10010000001011100 S
#2886000
bx @
bx E
b11100 Q
bx 1
bx J
bx U
b0 2
b0 F
b0 T
#2887000
b11100 6
b11100 S
#2940000
1#
#3000000
b11100 "
b11100 D
b11100 N
b11100 `
b11001 '
0#
#3002000
b100000 R
b10000 Q
#3003000
b10000 6
b10000 S
#3004000
0O
b100 =
b100 P
b100 \
b11 ,
b11 [
b11 _
b111 C
b111 G
b111 ^
0A
1?
0+
13
b1100 .
b1100 X
b10001100 -
b10001100 Z
b10110100000 5
b10110100000 ]
b100 /
b100 W
b1100 4
b1100 Y
b10110100000000000000000010001100 ;
b10110100000000000000000010001100 a
#3005000
b100000 6
b100000 S
#3006000
b1011 @
b1011 E
b101100 Q
b1011 1
b1011 J
b1011 U
bx 2
bx F
bx T
#3024000
bx <
bx V
bx *
bx B
bx H
bx I
#3025000
xO
x)
#3026000
b0x0xx <
b0x0xx V
b0x0xx *
b1011 B
b1011 H
b1011 I
#3027000
0O
0)
#3060000
1#
#3120000
b100000 "
b100000 D
b100000 N
b100000 `
b11010 '
0#
#3122000
b100100 R
b110000 Q
#3123000
b100100 6
b100100 S
#3124000
b1011 <
b1011 V
b1011 *
b100100000001101 =
b100100000001101 P
b100100000001101 \
bx ,
bx [
bx _
b10 C
b10 G
b10 ^
10
0:
0?
03
b1001 .
b1001 X
b11000010010000000110101101 -
b11000010010000000110101101 Z
b10001011000 5
b10001011000 ]
b1101 /
b1101 W
b1101 4
b1101 Y
b10001011000010010000000110101101 ;
b10001011000010010000000110101101 a
#3126000
b1 @
b1 E
b10010000001010100 Q
b1 1
b1 J
b1 U
b100 2
b100 F
b100 T
#3144000
bx <
bx V
bx *
bx B
bx H
bx I
#3145000
x)
#3146000
b101 <
b101 V
b101 *
b101 B
b101 H
b101 I
#3147000
0)
#3180000
1#
#3240000
b100100 "
b100100 D
b100100 N
b100100 `
b11011 '
0#
#3242000
b101000 R
b10010000001011000 Q
#3243000
b101000 6
b101000 S
#3244000
b110 C
b110 G
b110 ^
b11000010010000000110001100 -
b11000010010000000110001100 Z
b11001011000 5
b11001011000 ]
b1100 /
b1100 W
b1100 4
b1100 Y
b11001011000010010000000110001100 ;
b11001011000010010000000110001100 a
#3246000
b1011 2
b1011 F
b1011 T
#3264000
b11 <
b11 V
b11 *
b11 B
b11 H
b11 I
#3266000
b1010 <
b1010 V
b1010 *
b1010 B
b1010 H
b1010 I
#3300000
1#
#3360000
b101000 "
b101000 D
b101000 N
b101000 `
b11100 '
0#
#3362000
b101100 R
b10010000001011100 Q
#3363000
b101100 6
b101100 S
#3364000
b1111111111111111111111111111111111111111111111111111111111111101 =
b1111111111111111111111111111111111111111111111111111111111111101 P
b1111111111111111111111111111111111111111111111111111111111111101 \
b0x0x0 <
b0x0x0 V
bx01 @
bx01 E
b0x0x0 *
1O
b1 ,
b1 [
b1 _
bx C
bx G
bx ^
00
xA
x:
x?
1+
x3
b111x1 .
b111x1 X
b11111111111111111111111101 -
b11111111111111111111111101 Z
b10111111 5
b10111111 ]
b11111 /
b11111 W
b11101 4
b11101 Y
b10111111111111111111111111101 ;
b10111111111111111111111111101 a
#3365000
b10010000001011100 6
b10010000001011100 S
#3366000
bx @
bx E
b11100 Q
bx 1
bx J
bx U
b0 2
b0 F
b0 T
#3367000
b11100 6
b11100 S
#3420000
1#
#3480000
b11100 "
b11100 D
b11100 N
b11100 `
b11101 '
0#
#3482000
b100000 R
b10000 Q
#3483000
b10000 6
b10000 S
#3484000
0O
b100 =
b100 P
b100 \
b11 ,
b11 [
b11 _
b111 C
b111 G
b111 ^
0A
1?
0+
13
b1100 .
b1100 X
b10001100 -
b10001100 Z
b10110100000 5
b10110100000 ]
b100 /
b100 W
b1100 4
b1100 Y
b10110100000000000000000010001100 ;
b10110100000000000000000010001100 a
#3485000
b100000 6
b100000 S
#3486000
b1010 @
b1010 E
b101100 Q
b1010 1
b1010 J
b1010 U
bx 2
bx F
bx T
#3504000
bx <
bx V
bx *
bx B
bx H
bx I
#3505000
xO
x)
#3506000
b0x0x0 <
b0x0x0 V
b0x0x0 *
b1010 B
b1010 H
b1010 I
#3507000
0O
0)
#3540000
1#
#3600000
b100000 "
b100000 D
b100000 N
b100000 `
b11110 '
0#
#3602000
b100100 R
b110000 Q
#3603000
b100100 6
b100100 S
#3604000
b1010 <
b1010 V
b1010 *
b100100000001101 =
b100100000001101 P
b100100000001101 \
bx ,
bx [
bx _
b10 C
b10 G
b10 ^
10
0:
0?
03
b1001 .
b1001 X
b11000010010000000110101101 -
b11000010010000000110101101 Z
b10001011000 5
b10001011000 ]
b1101 /
b1101 W
b1101 4
b1101 Y
b10001011000010010000000110101101 ;
b10001011000010010000000110101101 a
#3606000
b1 @
b1 E
b10010000001010100 Q
b1 1
b1 J
b1 U
b101 2
b101 F
b101 T
#3624000
bx <
bx V
bx *
bx B
bx H
bx I
#3625000
x)
#3626000
b110 <
b110 V
b110 *
b110 B
b110 H
b110 I
#3627000
0)
#3660000
1#
#3720000
b100100 "
b100100 D
b100100 N
b100100 `
b11111 '
0#
#3722000
b101000 R
b10010000001011000 Q
#3723000
b101000 6
b101000 S
#3724000
b110 C
b110 G
b110 ^
b11000010010000000110001100 -
b11000010010000000110001100 Z
b11001011000 5
b11001011000 ]
b1100 /
b1100 W
b1100 4
b1100 Y
b11001011000010010000000110001100 ;
b11001011000010010000000110001100 a
#3726000
b1010 2
b1010 F
b1010 T
#3744000
b100 <
b100 V
b100 *
b100 B
b100 H
b100 I
#3746000
b1001 <
b1001 V
b1001 *
b1001 B
b1001 H
b1001 I
#3780000
1#
#3840000
b101000 "
b101000 D
b101000 N
b101000 `
b100000 '
0#
#3842000
b101100 R
b10010000001011100 Q
#3843000
b101100 6
b101100 S
#3844000
b1111111111111111111111111111111111111111111111111111111111111101 =
b1111111111111111111111111111111111111111111111111111111111111101 P
b1111111111111111111111111111111111111111111111111111111111111101 \
b0x00x <
b0x00x V
bx01 @
bx01 E
b0x00x *
1O
b1 ,
b1 [
b1 _
bx C
bx G
bx ^
00
xA
x:
x?
1+
x3
b111x1 .
b111x1 X
b11111111111111111111111101 -
b11111111111111111111111101 Z
b10111111 5
b10111111 ]
b11111 /
b11111 W
b11101 4
b11101 Y
b10111111111111111111111111101 ;
b10111111111111111111111111101 a
#3845000
b10010000001011100 6
b10010000001011100 S
#3846000
bx @
bx E
b11100 Q
bx 1
bx J
bx U
b0 2
b0 F
b0 T
#3847000
b11100 6
b11100 S
#3900000
1#
#3960000
b11100 "
b11100 D
b11100 N
b11100 `
b100001 '
0#
#3962000
b100000 R
b10000 Q
#3963000
b10000 6
b10000 S
#3964000
0O
b100 =
b100 P
b100 \
b11 ,
b11 [
b11 _
b111 C
b111 G
b111 ^
0A
1?
0+
13
b1100 .
b1100 X
b10001100 -
b10001100 Z
b10110100000 5
b10110100000 ]
b100 /
b100 W
b1100 4
b1100 Y
b10110100000000000000000010001100 ;
b10110100000000000000000010001100 a
#3965000
b100000 6
b100000 S
#3966000
b1001 @
b1001 E
b101100 Q
b1001 1
b1001 J
b1001 U
bx 2
bx F
bx T
#3984000
bx <
bx V
bx *
bx B
bx H
bx I
#3985000
xO
x)
#3986000
b0x00x <
b0x00x V
b0x00x *
b1001 B
b1001 H
b1001 I
#3987000
0O
0)
#4020000
1#
#4080000
b100000 "
b100000 D
b100000 N
b100000 `
b100010 '
0#
#4082000
b100100 R
b110000 Q
#4083000
b100100 6
b100100 S
#4084000
b1001 <
b1001 V
b1001 *
b100100000001101 =
b100100000001101 P
b100100000001101 \
bx ,
bx [
bx _
b10 C
b10 G
b10 ^
10
0:
0?
03
b1001 .
b1001 X
b11000010010000000110101101 -
b11000010010000000110101101 Z
b10001011000 5
b10001011000 ]
b1101 /
b1101 W
b1101 4
b1101 Y
b10001011000010010000000110101101 ;
b10001011000010010000000110101101 a
#4086000
b1 @
b1 E
b10010000001010100 Q
b1 1
b1 J
b1 U
b110 2
b110 F
b110 T
#4104000
bx <
bx V
bx *
bx B
bx H
bx I
#4105000
x)
